Uso de R para la investigación social - 11 Extras: parlamentos, texto y flujos bilaterales
…
Las palabras tienen un papel en el lenguaje, por lo cual muchas veces la unidad que usaremos será esa. Uno de los primeros pasos para el análisis de texto será descomponer nuestros textos en palabras.

11.5.1 Tokenización con `{tidytext}

Para usar {tidytext}, necesitamos que nuestro texto esté en formato tibble:

shei_df <-tibble(text=shei_text[-(143:148)])

A partir de esto podemos pasar al proceso de tokenización:

shei_df %>%
  unnest_tokens(word, text)

# A tibble: 4,785 × 1
   word       
   <chr>      
 1 presidencia
 2 de         
 3 la         
 4 república  
 5 01         
 6 de         
 7 octubre    
 8 de         
 9 2024       
10 ifigenia   
# ℹ 4,775 more rows
…
Para graficarlos mejor en el diagrama, vamos utilizar los codigos iso de tres letras para los estados:

bilateral %<>% 
  left_join(iso, join_by(cve_geo_dest==cve_geo)) %>% 
  rename(dest=iso) %>% 
  left_join(iso, join_by(cve_geo_orig==cve_geo)) %>% 
  rename(orig=iso)

Vamos a crear un objeto sólo con tres variables

bilateral %>% 
  select(orig, dest, flujo) # necesitamos un objeto con estas tres variables

# A tibble: 992 × 3
   orig  dest  flujo
   <chr> <chr> <dbl>
 1 BCN   AGU     806
 2 BCS   AGU     175
 3 CAM   AGU     138
 4 COA   AGU     960
 5 COL   AGU     418
 6 CHP   AGU     481
 7 CHH   AGU     999
 8 CDMX  AGU    6426
 9 DUR   AGU     796
10 GUA   AGU    3245
# ℹ 982 more rows
…
